{
  "name": "baldurmen-limnoria",
  "version": "1.1.0",
  "author": "Louis-Philippe Véronneau",
  "summary": "Installs, configures and manages Limnoria",
  "license": "GPL-3.0",
  "source": "https://gitlab.com/baldurmen/puppet-limnoria",
  "project_page": "https://gitlab.com/baldurmen/puppet-limnoria",
  "issues_url": "https://gitlab.com/baldurmen/puppet-limnoria/issues",
  "operatingsystem_support": [
    {
      "operatingsystem": "Debian",
      "operatingsystemrelease": [
        "10"
      ]
    }
  ],
  "requirements": [
    {
      "name": "puppet",
       "version_requirement": ">= 5.5.0"
    }
  ],
  "dependencies": [
    {
      "name": "puppetlabs/stdlib",
      "version_requirement": ">= 6.2.0"
    }
  ],
  "description": "This module manages and installs Limnoria, an IRC bot written in Python."
}
